billing_transactions_id,category,description,date,period_from,period_to,invoice_id,total,commission
6138,7,jun,2021-06-20,,,2210,10.00,1.00
6140,1,year,2021-06-01,2021-06-01,2022-05-30,2211,200.00,20.00
6141,2,jun-jul,2021-06-01,2021-06-01,2021-07-30,2212,-25.00,-2.50
6142,1,aug-sep,2021-06-01,2021-08-01,2021-09-30,2213,10.00,1.00
fixed-commission,,Fixed commission for 12 months (Jun 2021 - May 2022),,,,,0,60.00