id,customer_id,type,quantity,unit,price,total,tax_id,date,category,description,comment,period_from,period_to,to_invoice,service_id,service_type,payment_id,invoice_id,invoiced_by_id,source,deleted,updated_at,vendor_id
6138,1998,debit,1,,10.00,10.00,1,2021-10-01,7,oct,,2021-10-01,2021-10-31,1,75,internet,,2210,2210,manual,0,2021-03-31 14:47:03,1
6140,1999,debit,1,,10.00,10.00,1,2021-10-01,1,oct-nov,,2021-10-01,2021-11-30,1,17,bundle,,2211,2211,auto,0,2021-03-31 14:48:49,1
6141,1997,debit,1,,30.00,30.00,1,2021-10-01,2,oct-dec,,2021-10-01,2021-12-31,1,17,bundle,,2212,2212,auto,0,2021-03-31 14:48:49,2